{"user_securities":[{"id":53772,"ticker":"XS1676062539","name":"12M USD UBS FCN - C/ AMZN/ AAPL XS1676062539__2018-09-20","watchlist":true,"holding":false,"country":"United States of America","asset_class":"Bond","industry":null},{"id":9235,"ticker":"SG6W07984308","name":"AACI REIT MTN PTE LTD 4.9000% 2016-08-08","watchlist":false,"holding":false,"country":"Singapore","asset_class":"alpha","industry":"Real Estate"},{"id":1406,"ticker":"ABBN_VX","name":"ABB LTD-REG","watchlist":false,"holding":true,"country":"Switzerland","asset_class":"Equity","industry":"Machinery-Constr\u0026Mining"},{"id":1407,"ticker":"ABBV_US","name":"ABBVIE INC","watchlist":true,"holding":true,"country":"United States of America","asset_class":"Equity","industry":"Pharmaceuticals"},{"id":10743,"ticker":"XS1092182606","name":"ABJA INVESTMENT CO 4.8500% 2020-01-31","watchlist":false,"holding":true,"country":"Swaziland","asset_class":"Banana","industry":"Iron/Steel"},{"id":5845,"ticker":"XS0827817650","name":"ABN AMRO BANK NV 6.2500% 2022-09-13","watchlist":false,"holding":false,"country":"TEST","asset_class":"Bond","industry":"Banks"},{"id":9242,"ticker":"XS1073217561","name":"AHB TIER 1 SUKUK LTD 5.5000% Perpetual","watchlist":false,"holding":true,"country":"United Arab Emirates","asset_class":"Bond","industry":"Banks"},{"id":2848,"ticker":"1299_HK","name":"AIA GROUP LTD","watchlist":false,"holding":true,"country":"Hong Kong","asset_class":"Equity","industry":"Insurance"},{"id":1732,"ticker":"BABA_US","name":"Alibaba Group Holding-Sp Adr","watchlist":false,"holding":true,"country":"Cayman Islands","asset_class":"Equity","industry":"Internet"},{"id":23402,"ticker":"ALV_IM","name":"ALLIANZ SE-REG","watchlist":false,"holding":true,"country":"Germany","asset_class":"Equity","industry":"Insurance"},{"id":1594,"ticker":"ALV_GR","name":"Allianz Se-Reg","watchlist":false,"holding":true,"country":"Germany","asset_class":"Equity","industry":"Insurance"},{"id":1124,"ticker":"AMZN_US","name":"AMAZON.COM INC","watchlist":true,"holding":true,"country":"China","asset_class":"Equity","industry":"Internet"},{"id":3618,"ticker":"AAL_US","name":"AMERICAN AIRLINES GROUP INC","watchlist":false,"holding":true,"country":"United States of America","asset_class":"Equity","industry":"Airlines"},{"id":3624,"ticker":"AEP_US","name":"AMERICAN ELECTRIC POWER","watchlist":false,"holding":true,"country":"United States of America","asset_class":"Equity","industry":"Electric"},{"id":1589,"ticker":"AMGN_US","name":"AMGEN INC","watchlist":false,"holding":true,"country":"United States of America","asset_class":"Equity","industry":"Biotechnology"},{"id":47176,"ticker":"14352EUR_EU","name":"Anheuser-Busch Inbev Sa/Nv","watchlist":false,"holding":true,"country":"Belgium","asset_class":"Equity","industry":"Beverages"},{"id":34846,"ticker":"600585_CH","name":"ANHUI CONCH CEMENT CO LTD-A","watchlist":false,"holding":true,"country":"China","asset_class":"Equity","industry":"Building Materials"},{"id":984,"ticker":"AAPL_US","name":"Apple Inc","watchlist":true,"holding":false,"country":"United States of America","asset_class":"Equity","industry":"Phones"},{"id":47545,"ticker":"EQUITYOPTION_AAPL_US_2018-01-18_140_00140000","name":"Apple Inc. Jan 18 2019 140.00 Call","watchlist":false,"holding":false,"country":null,"asset_class":"Derivative","industry":"Equity Option"},{"id":37391,"ticker":"XS1135337498","name":"APPLE INC_1.625_2026-11-10","watchlist":true,"holding":false,"country":"United States of America","asset_class":"Bond","industry":"Computers"},{"id":7165,"ticker":"SG6W14984507","name":"ASCOTT CAPITAL PTE LTD 3.7800% 2019-08-16","watchlist":false,"holding":false,"country":"Singapore","asset_class":"Bond","industry":"Real Estate"},{"id":9217,"ticker":"SG6TG1000001","name":"ASCOTT RESIDENCE TRUST 5% Perpetual","watchlist":false,"holding":false,"country":"Singapore","asset_class":"Bond","industry":"Reits"},{"id":27933,"ticker":"FF1932321494","name":"Asia Private Equity Fund 1","watchlist":false,"holding":true,"country":"Hong Kong","asset_class":"Alternatives","industry":"Alternative Investment"},{"id":27931,"ticker":"EQ2535472200","name":"Asia Private Equity Fund 1 - Commitment","watchlist":false,"holding":true,"country":"Hong Kong","asset_class":"Commitment","industry":null},{"id":47581,"ticker":"FF2382411710","name":"Asia Private Equity Fund 2","watchlist":false,"holding":true,"country":"Singapore","asset_class":"Alternatives","industry":"Alternative Investment"},{"id":47580,"ticker":"EQ1952346624","name":"Asia Private Equity Fund 2 - Commitment ","watchlist":false,"holding":true,"country":"Singapore","asset_class":"Commitment","industry":null},{"id":2356,"ticker":"ASML_NA","name":"ASML HOLDING NV","watchlist":false,"holding":true,"country":"Netherlands","asset_class":"Equity","industry":"Semiconductors"},{"id":434,"ticker":"T_US","name":"AT\u0026T INC","watchlist":false,"holding":true,"country":"United States of America","asset_class":"Equity","industry":"Telecommunications"},{"id":26874,"ticker":"AAPLUSB_AR","name":"Axis Ahorro Plus-B","watchlist":true,"holding":false,"country":"Latin American Region","asset_class":"Fund","industry":"Open-End Fund"},{"id":8586,"ticker":"US05463EAB48","name":"AXIS BANK/DUBAI 5.1250% 2017-09-05","watchlist":false,"holding":false,"country":"India","asset_class":"Bond","industry":"Banks"},{"id":29444,"ticker":"AC_PM","name":"AYALA CORPORATION","watchlist":false,"holding":true,"country":"Philippines","asset_class":"Equity","industry":"Real Estate"},{"id":1920,"ticker":"BIDU_US","name":"BAIDU INC - SPON ADR","watchlist":false,"holding":true,"country":"China","asset_class":"Equity","industry":"Internet"},{"id":1770,"ticker":"BAS_GR","name":"BASF SE","watchlist":false,"holding":true,"country":"Germany","asset_class":"Equity","industry":"Chemicals"},{"id":55406,"ticker":"BAYN_GY","name":"Bayer Ag-Reg","watchlist":false,"holding":true,"country":"Germany","asset_class":"Equity","industry":"Pharmaceuticals"},{"id":1777,"ticker":"BAYN_GR","name":"BAYER AG-REG","watchlist":false,"holding":true,"country":"Germany","asset_class":"Equity","industry":"Pharmaceuticals"},{"id":2039,"ticker":"BMW_GR","name":"BAYERISCHE MOTOREN WERKE AG","watchlist":false,"holding":true,"country":"Germany","asset_class":"Equity","industry":"Auto Manufacturers"},{"id":10512,"ticker":"XS0919055581","name":"BEIJING ENTERPRISES WATE 4.6250% 2018-05-06","watchlist":false,"holding":false,"country":"China","asset_class":"Bond","industry":"Environmental Control"},{"id":26972,"ticker":"AAA_AU","name":"Betashares Aus High Interest","watchlist":false,"holding":true,"country":null,"asset_class":"Fund","industry":"ETF"},{"id":9136,"ticker":"USQ12441AB91","name":"BHP BILLITON FIN USA LTD 6.7500% 2075-10-19","watchlist":false,"holding":true,"country":"Australia","asset_class":"Bond","industry":"Mining"},{"id":1997,"ticker":"BNP_FP","name":"BNP PARIBAS","watchlist":false,"holding":true,"country":"France","asset_class":"Equity","industry":"Banks"},{"id":55892,"ticker":"OT5622149927","name":"Botero Bronze Sculpture \"Horse\" ","watchlist":false,"holding":true,"country":null,"asset_class":"Non-Financial Asset","industry":null},{"id":1761,"ticker":"BATS_LN","name":"BRITISH AMERICAN TOBACCO PLC","watchlist":false,"holding":true,"country":"United Kingdom","asset_class":"Equity","industry":"Agriculture"},{"id":3375,"ticker":"7751_JP","name":"CANON INC","watchlist":false,"holding":false,"country":"Japan","asset_class":"Equity","industry":"Office/Business Equip"},{"id":29758,"ticker":"CAR_AU","name":"CARSALES.COM LTD","watchlist":false,"holding":true,"country":"Australia","asset_class":"Equity","industry":"Internet"},{"id":2572,"ticker":"CO_FP","name":"CASINO GUICHARD PERRACHON","watchlist":false,"holding":false,"country":"France","asset_class":"Equity","industry":"Food"},{"id":23401,"ticker":"2474_TT","name":"CATCHER TECHNOLOGY CO LTD","watchlist":false,"holding":true,"country":"Taiwan (Province of China)","asset_class":"Equity","industry":"Metal Fabricate/Hardware"},{"id":9716,"ticker":"XS1069934831","name":"CENTRAL CHINA REAL ESTAT 6.5000% 2017-05-26","watchlist":false,"holding":false,"country":"China","asset_class":"Bond","industry":"Real Estate"},{"id":10329,"ticker":"XS0945673191","name":"CGN MEIYA POWER HOLDINGS 4% 2018-08-19","watchlist":false,"holding":true,"country":"China","asset_class":"Bond","industry":"Electric"},{"id":29820,"ticker":"CK_TB","name":"CH. KARNCHANG PUBLIC CO LTD","watchlist":false,"holding":true,"country":"Thailand","asset_class":"Equity","industry":"Engineering\u0026Construction"},{"id":4225,"ticker":"CVX_US","name":"CHEVRON CORP","watchlist":false,"holding":true,"country":"United States of America","asset_class":"Equity","industry":"Oil\u0026Gas"},{"id":2578,"ticker":"CO_US","name":"China Cord Blood Corp","watchlist":true,"holding":false,"country":"Hong Kong","asset_class":"Equity","industry":"Healthcare-Services"},{"id":3692,"ticker":"C_US","name":"CITIGROUP INC","watchlist":false,"holding":true,"country":"United States of America","asset_class":"Equity","industry":"Banks"},{"id":10716,"ticker":"XS1064021246","name":"CLP POWER HK FINANCE LTD 4.2500% Perpetual","watchlist":false,"holding":true,"country":"Hong Kong","asset_class":"Bond","industry":"Electric"},{"id":2119,"ticker":"CMS_US","name":"CMS ENERGY CORP","watchlist":false,"holding":true,"country":"United States of America","asset_class":"Equity","industry":"Electric"},{"id":3952,"ticker":"KO_US","name":"COCA-COLA CO/THE","watchlist":false,"holding":true,"country":"United States of America","asset_class":"Equity","industry":"Beverages"},{"id":30088,"ticker":"078340_KS","name":"COM2US CORP","watchlist":false,"holding":true,"country":"Korea - the Republic of","asset_class":"Equity","industry":"Internet"},{"id":8541,"ticker":"SG55G6992074","name":"COURTS ASIA LTD 4.750000% 2016-05-02","watchlist":false,"holding":false,"country":"Singapore","asset_class":"Bond","industry":"Retail"},{"id":2457,"ticker":"CPALL_TB","name":"CP ALL PCL","watchlist":true,"holding":false,"country":"Thailand","asset_class":"Equity","industry":"Retail"},{"id":2035,"ticker":"LU0635706566","name":"Cs Nova Lux Glb Sen Ln-Iausd","watchlist":false,"holding":false,"country":"Luxembourg","asset_class":"Fund","industry":"SICAV"},{"id":2687,"ticker":"DAI_GR","name":"DAIMLER AG-REGISTERED SHARES","watchlist":false,"holding":true,"country":"Germany","asset_class":"Equity","industry":"Auto Manufacturers"},{"id":9240,"ticker":"XS1071551474","name":"DEUTSCHE BANK AG 6.2500% Perpetual","watchlist":false,"holding":false,"country":"Germany","asset_class":"Bond","industry":"Banks"},{"id":2795,"ticker":"DTE_GR","name":"DEUTSCHE TELEKOM AG-REG","watchlist":false,"holding":true,"country":"Germany","asset_class":"Equity","industry":"Telecommunications"},{"id":3831,"ticker":"DOW_US","name":"DOW CHEMICAL CO/THE","watchlist":false,"holding":true,"country":"United States of America","asset_class":"Equity","industry":"Chemicals"},{"id":2776,"ticker":"DUK_US","name":"DUKE ENERGY CORP","watchlist":false,"holding":true,"country":"United States of America","asset_class":"Equity","industry":"Electric"},{"id":9798,"ticker":"XS0810321140","name":"DYNAMIC TALENT LTD 4.7500% 2017-08-01","watchlist":false,"holding":false,"country":"Hong Kong","asset_class":"Bond","industry":"Lodging"},{"id":1926,"ticker":"EIX_US","name":"EDISON INTERNATIONAL","watchlist":false,"holding":false,"country":"United States of America","asset_class":"Equity","industry":"Electric"},{"id":3661,"ticker":"ELUXF_US","name":"ELECTROLUX AB-SER B","watchlist":false,"holding":false,"country":"Sweden","asset_class":"Equity","industry":"Home Furnishings"},{"id":1904,"ticker":"ELUXB_SS","name":"Electrolux Ab-Ser B","watchlist":false,"holding":false,"country":"Sweden","asset_class":"Equity","industry":"Home Furnishings"},{"id":9244,"ticker":"XS0935833292","name":"EMIRATES NBD TIER 1 5.7500% Perpetual","watchlist":false,"holding":true,"country":"United Arab Emirates","asset_class":"Bond","industry":"Banks"},{"id":48359,"ticker":"BP1651016411","name":"Equity Linked Note, GE:US 2016-09-30","watchlist":false,"holding":false,"country":"United States of America","asset_class":"Bond","industry":null},{"id":2956,"ticker":"ERICB_SS","name":"ERICSSON LM-B SHS","watchlist":false,"holding":true,"country":"Sweden","asset_class":"Equity","industry":"Telecommunications"},{"id":3011,"ticker":"EUTLF_US","name":"EUTELSAT COMMUNICATIONS","watchlist":false,"holding":false,"country":"France","asset_class":"Equity","industry":"Telecommunications"},{"id":3000,"ticker":"ETL_EU","name":"EUTELSAT COMMUNICATIONS","watchlist":false,"holding":true,"country":"France","asset_class":"Equity","industry":"Telecommunications"},{"id":2958,"ticker":"ES_US","name":"EVERSOURCE ENERGY","watchlist":false,"holding":true,"country":"United States of America","asset_class":"Equity","industry":"Electric"},{"id":6989,"ticker":"XS0828909472","name":"EX-IM BK INDIA/LONDON 3.3750% 2017-09-18","watchlist":false,"holding":false,"country":"India","asset_class":"Bond","industry":"Banks"},{"id":9344,"ticker":"SG6UH9000009","name":"EZION HOLDINGS LTD 7% Perpetual","watchlist":false,"holding":true,"country":"Singapore","asset_class":"Bond","industry":"Commercial Services"},{"id":6866,"ticker":"XS1062183154","name":"FAR EAST HORIZON LTD 4.2500% 2017-10-30","watchlist":false,"holding":false,"country":"China","asset_class":"Bond","industry":"Diversified Finan Serv"},{"id":9832,"ticker":"XS1114423129","name":"FAR EAST HORIZON LTD 4.2500% 2019-10-08","watchlist":false,"holding":false,"country":"China","asset_class":"Bond","industry":"Diversified Finan Serv"},{"id":10732,"ticker":"XS1079564255","name":"FAR EAST HORIZON LTD 5.5500% Perpetual","watchlist":false,"holding":false,"country":"China","asset_class":"Bond","industry":"Diversified Finan Serv"},{"id":9231,"ticker":"SG6TA0000005","name":"FCL TREASURY PTE LTD 4.8800% Perpetual","watchlist":false,"holding":true,"country":"Singapore","asset_class":"Bond","industry":"Real Estate"},{"id":3074,"ticker":"FDX_US","name":"FEDEX CORP","watchlist":false,"holding":true,"country":"United States of America","asset_class":"Equity","industry":"Transportation"},{"id":47538,"ticker":"FXFORWARD_CHN/USD_0.15_022517","name":"FFX: Sell CHN and Buy USD","watchlist":false,"holding":true,"country":null,"asset_class":"Derivative","industry":"FX Forward"},{"id":47539,"ticker":"FXFORWARD_GBP/USD_1.2834_01234","name":"FFX: Sell GBP and Buy USD","watchlist":false,"holding":true,"country":null,"asset_class":"Derivative","industry":"FX Forward"},{"id":47541,"ticker":"FXFORWARD_JPY/USD_0.009_023145","name":"FFX: Sell JPY and Buy USD","watchlist":false,"holding":true,"country":null,"asset_class":"Derivative","industry":"FX Forward"},{"id":27930,"ticker":"EQ1641681246","name":"FinTech Company","watchlist":false,"holding":true,"country":"Singapore","asset_class":"Direct Investment","industry":"FinTech"},{"id":9225,"ticker":"SG56E6992960","name":"FIRST REAL ESTATE INVEST 4.1250% 2018-05-22","watchlist":false,"holding":false,"country":"Singapore","asset_class":"Bond","industry":"Reits"},{"id":3071,"ticker":"FCX_US","name":"FREEPORT-MCMORAN INC","watchlist":false,"holding":false,"country":"United States of America","asset_class":"Equity","industry":"Mining"},{"id":9218,"ticker":"XS0968554609","name":"FUKOKU MUTUAL LIFE INSUR 6.5000% Perpetual","watchlist":false,"holding":false,"country":"Japan","asset_class":"Bond","industry":"Insurance"},{"id":3173,"ticker":"FULSGIA_SP","name":"Fullerton Sgd Income Fund-A","watchlist":false,"holding":false,"country":"Singapore","asset_class":"Fund","industry":"Open-End Fund"},{"id":48333,"ticker":"ACCUMULATOR_EUR/USD_2017-06-27_1.040_FX_DEMO","name":"FX Accumulator 2Q","watchlist":false,"holding":true,"country":null,"asset_class":"Derivative","industry":"Accumulator"},{"id":8533,"ticker":"SG6QC9000008","name":"G8 EDUCATION LTD 4.7500% 2017-05-19","watchlist":false,"holding":false,"country":"Australia","asset_class":"Bond","industry":"Commercial Services"},{"id":10632,"ticker":"SG6PG9000001","name":"GALLANT VENTURE LTD 5.9500% 2016-04-21","watchlist":false,"holding":false,"country":"Singapore","asset_class":"Bond","industry":"Investment Companies"},{"id":47553,"ticker":"LoanRef_canopy_demo332-rere-01-gbp-01_600000","name":"GBP Loan","watchlist":false,"holding":true,"country":"Loan","asset_class":"Loan","industry":"Loan"},{"id":3215,"ticker":"GELCHGR_SP","name":"Gel Greatlink China Growth","watchlist":false,"holding":true,"country":"Singapore","asset_class":"Fund","industry":"Open-End Fund"},{"id":3216,"ticker":"GELGLBF_SP","name":"Gel Greatlink Global Bond","watchlist":false,"holding":true,"country":"Singapore","asset_class":"Fund","industry":"Open-End Fund"},{"id":3217,"ticker":"GELGROW_SP","name":"Gel Greatlink Global Equity","watchlist":false,"holding":true,"country":"Singapore","asset_class":"Fund","industry":"Open-End Fund"},{"id":3209,"ticker":"GE_US","name":"GENERAL ELECTRIC CO","watchlist":true,"holding":true,"country":"United States of America","asset_class":"Equity","industry":"Miscellaneous Manufactur"},{"id":9247,"ticker":"SG56F8993427","name":"GLL IHT PTE LTD 4.7000% Perpetual","watchlist":false,"holding":false,"country":"Singapore","asset_class":"Bond","industry":"Real Estate"},{"id":27929,"ticker":"FF2431631220","name":"Global Macro Hedge Fund","watchlist":false,"holding":true,"country":"Singapore","asset_class":"Alternatives","industry":"Alternative Investment"},{"id":47577,"ticker":"FUTURE_GOLD_2018-08-15_GCQ18","name":"Gold Aug '18 (GCQ18)","watchlist":false,"holding":false,"country":null,"asset_class":"Derivative","industry":"Future"}],"meta":{"total_pages":4,"page":1,"per_page":100,"total":329}}
